{
  "results": [
    {
      "id": "pt1",
      "training": "WHO regulatory systems strengthening",
      "provider": "WHO AFRO Training Centre",
      "completed": "12 Jan 2026",
      "activity": "Regulatory frameworks",
      "remote_type": "External",
      "certificate_view_url": "/admin/certificates/3/"
    },
    {
      "id": "pt2",
      "training": "CTD dossier review — advanced",
      "provider": "CDSCO Training Institute",
      "completed": "5 Oct 2025",
      "activity": "CTD submission review",
      "remote_type": "On-platform",
      "certificate_view_url": "/admin/certificates/4/"
    },
    {
      "id": "pt3",
      "training": "Pharmacovigilance fundamentals",
      "provider": "Uppsala Monitoring Centre",
      "completed": "22 Jun 2025",
      "activity": "Adverse event reporting",
      "remote_type": "External",
      "certificate_view_url": "/admin/certificates/5/"
    }
  ],
  "count": 52,
  "page": 1,
  "page_size": 20,
  "total_pages": 3
}
